Recreating Our World In Data’s Beautiful Transistor Count Graphic – Interlude One
…
As visible in the screen capture of the table above, a few cells also hyper-link to sources for the stats. These square brackets prevent R from reading the column as a set of numbers, instead the cell contents are returned as characters. In the chunk below I use readr’s parse_number function to extract the numbers from each cell and store them as a double.

df_transistors <- df_transistors %>% 
  janitor::clean_names() %>% 
  mutate(processor = str_squish(str_remove(processor, "\\(.*"))) %>% 
  mutate_at(c("transistor_count", "date_ofintroduction", "process_nm", "area_mm2"), parse_number)

Data viz preparation

In this chunk I lump together the chip designers into the five largest groups and an ‘other’ category with forcats’ fct_lump function. It returns these categories as factors. To make the graphic readable, I sample 50 of the processors from the table of 193 to annotate onto the plot I also store some graph labels.

df_transistors %>% 
  count(designer, sort = T)

# A tibble: 44 × 2
   designer              n
   <chr>             <int>
 1 Intel                64
 2 Apple                22
 3 AMD                  21
 4 IBM                  19
 5 Fujitsu              10
 6 Huawei                7
 7 Motorola              7
 8 Qualcomm              7
 9 DEC                   5
10 Texas Instruments     5
# … with 34 more rows
…
