Shipping and Scraping - Part 1 in a Series on Shipping
…
}

Here we apply the function to our link and get back a list of links to each page.

# apply function to link.
list_of_links <- get_ship_links(link)

Getting links from https://en.wikipedia.org/wiki/List_of_cargo_ships

list_of_links

# A tibble: 1,024 x 1
   value
   <chr>
 1 #top 
 2 #0–9 
 3 #A   
 4 #B   
 5 #C   
 6 #D   
 7 #E   
 8 #F   
 9 #G   
10 #H   
# ... with 1,014 more rows

We can see we get 1 024 links back, but the problem is that there are multiple instances of the Table of Contents links, “#A”, “#B” etc. We will filter these out by only selecting links with 5 or more characters.

list_of_links <- list_of_links %>% 
  filter(nchar(value) > 4) %>% 
  # this sticks the stub to the link so that we can use it later
  mutate(value = str_c("https://en.wikipedia.org/", value)) %>% 
  select(url = value)

list_of_links

# A tibble: 268 x 1
   url                                                                
   <chr>                                                              
 1 https://en.wikipedia.org//w/index.php?title=Al_Rekayyat,_LNG_Tanke~
 2 https://en.wikipedia.org//wiki/Algosteel                           
 3 https://en.wikipedia.org//wiki/SS_Amasa_Stone                      
 4 https://en.wikipedia.org//wiki/MV_Algocape                         
 5 https://en.wikipedia.org//wiki/Algorail                            
 6 https://en.wikipedia.org//wiki/Algosoo_(1974_ship)                 
 7 https://en.wikipedia.org//wiki/Algolake                            
 8 https://en.wikipedia.org//wiki/Algoma_Equinox                      
 9 https://en.wikipedia.org//wiki/MV_Buffalo                          
10 https://en.wikipedia.org//wiki/Algoma_Compass                      
# ... with 258 more rows
…
